Calendar-based graphics • sugrrants
…
We’ll start with one sensor only–Melbourne Convention Exhibition Centre–to explain the basic use of the frame_calendar(). As it attempts to fit into the tidyverse framework, the interface should be straightforward to those who use tidyverse on a daily basis. The first argument is the data so that the data frame can directly be piped into the function using %>%. A variable indicating time of day could be mapped to x, a value variable of interest mapped to y. date requires a Date variable to organise the data into a correct chronological order . See ?frame_calendar() for more options. In this case, Time as hour of day is used for x and Hourly_Counts as value for y. It returns a data frame including newly added columns .Time and .Hourly_Counts with a “.” prefixed to the variable names. These new columns contain the rearranged coordinates for the calendar plots later.

centre <- pedestrian17 %>% 
  filter(Sensor_Name == "Melbourne Convention Exhibition Centre")
centre_calendar <- centre %>%
  frame_calendar(x = Time, y = Hourly_Counts, date = Date, calendar = "monthly")
centre_calendar

#> # A tibble: 2,880 x 12
#>   Date_Time           Date        Year Month Mdate Day    Time Sensor_ID
#>   <dttm>              <date>     <int> <ord> <int> <ord> <int>     <int>
#> 1 2017-01-01 00:00:00 2017-01-01  2017 Janu…     1 Sund…     0        25
#> 2 2017-01-01 01:00:00 2017-01-01  2017 Janu…     1 Sund…     1        25
#> 3 2017-01-01 02:00:00 2017-01-01  2017 Janu…     1 Sund…     2        25
#> 4 2017-01-01 03:00:00 2017-01-01  2017 Janu…     1 Sund…     3        25
#> 5 2017-01-01 04:00:00 2017-01-01  2017 Janu…     1 Sund…     4        25
#> # ... with 2,875 more rows, and 4 more variables: Sensor_Name <chr>,
#> #   Hourly_Counts <int>, .Time <dbl>, .Hourly_Counts <dbl>
…
  spread(key = Sensor_Name, value = Hourly_Counts) %>% 
  rename(
    Lonsdale = `Lonsdale St (South)`,
    Centre = `Melbourne Convention Exhibition Centre`
  ) %>%
  mutate(
    Diff = Centre - Lonsdale,
    More = if_else(Diff > 0, "Centre", "Lonsdale")
  )
sensors_wide_calendar <- two_sensors_wide %>% 
  frame_calendar(x = Time, y = vars(Centre, Lonsdale), date = Date, 
    calendar = "weekly")
sensors_wide_calendar

#> # A tibble: 2,880 x 14
#>   Date_Time           Date        Year Month Mdate Day    Time Lonsdale
#>   <dttm>              <date>     <int> <ord> <int> <ord> <int>    <int>
#> 1 2017-01-01 00:00:00 2017-01-01  2017 Janu…     1 Sund…     0      827
#> 2 2017-01-01 01:00:00 2017-01-01  2017 Janu…     1 Sund…     1      918
#> 3 2017-01-01 02:00:00 2017-01-01  2017 Janu…     1 Sund…     2      600
#> 4 2017-01-01 03:00:00 2017-01-01  2017 Janu…     1 Sund…     3      495
#> 5 2017-01-01 04:00:00 2017-01-01  2017 Janu…     1 Sund…     4      270
#> # ... with 2,875 more rows, and 6 more variables: Centre <int>,
#> #   Diff <int>, More <chr>, .Time <dbl>, .Centre <dbl>, .Lonsdale <dbl>
…
