Aggregate over calendar periods — summarise.tbl_ts • sugrrants
…
    See also

    dplyr::summarise

    Examples

   pkgs_ts <- as_tsibble(tidypkgs, key = key_vars(package), index = date)
   pkgs_ts %>%
     group_by(package) %>%
     summarise(avg_count = mean(count), month = ~ as.yearmon())
#> # A tsibble of 1MONTH time interval for package 
#> # A tibble: 144 x 3
#> # Groups:   package [?]
#>    package         month avg_count
#>  *   <chr> <S3: yearmon>     <dbl>
#>  1   dplyr      Jan 2015  1311.097
#>  2   dplyr      Feb 2015  1727.821
#>  3   dplyr      Mar 2015  1630.000
#>  4   dplyr      Apr 2015  1869.067
#>  5   dplyr      May 2015  1843.290
#>  6   dplyr      Jun 2015  2224.567
#>  7   dplyr      Jul 2015  1713.484
#>  8   dplyr      Aug 2015  1961.387
#>  9   dplyr      Sep 2015  2925.600
#> 10   dplyr      Oct 2015  2774.161
#> # ... with 134 more rows
…
